{'刘忠强': 'http://106.14.207.198:1801',
 '刘梦成': 'http://47.100.198.203:1801',
 '刘求应': 'http://106.15.182.187:1801',
 '卢庆华': 'http://47.100.178.135:1801',
 '叶盛森': 'http://101.132.167.29:1801',
 '宗徐恒': 'http://47.98.42.120:1521',
 '师仁杰': 'http://47.104.229.81:1801',
 '张泽浩': 'http://47.98.114.152:1801',
 '彭天弘': 'http://47.98.199.40:1801',
 '朱浪': 'http://47.100.171.224:1801',
 '李宏伟 ': 'http://101.68.87.26:1801',
 '李超': 'http://47.106.115.229:1801',
 '李龙超': 'http://47.98.204.55:1801',
 '汪飞': 'http://47.100.206.98:1801',
 '申少康': 'http://47.98.200.157:1801',
 '申立超': 'http://47.98.200.75:1801',
 '胡明豪': 'http://47.98.195.95:1801',
 '许玉臻': 'http://47.104.242.52:1801',
 '谭成': 'http://47.106.137.91:1801',
 '闫志超': 'http://39.108.132.76:1801',
 '陈文东': 'http://47.98.211.219:1801',
 '魏娟娟': 'http://47.106.118.155:1801',
 '黄志高': 'http://192.168.1.39:1801'}
